Most Informative Features
                UNI_rude = 1              negati : positi =     33.8 : 1.0
         BIGRAM_i_highly = 1              positi : negati =     21.0 : 1.0
                UNI_back = 3              negati : positi =     21.0 : 1.0
                UNI_told = 3              negati : positi =     19.4 : 1.0
          UNI_overpriced = 1              negati : positi =     18.6 : 1.0
          BIGRAM_i_asked = 1              negati : positi =     18.6 : 1.0
               UNI_bland = 1              negati : positi =     18.6 : 1.0
                UNI_said = 3              negati : positi =     17.8 : 1.0
          UNI_understand = 1              negati : positi =     15.4 : 1.0
            UNI_waitress = 3              negati : positi =     15.4 : 1.0
               UNI_asked = 3              negati : positi =     15.4 : 1.0
             UNI_charged = 1              negati : positi =     14.6 : 1.0
                UNI_when = 3              negati : positi =     14.6 : 1.0
            UNI_informed = 1              negati : positi =     13.8 : 1.0
 BIGRAM_service_friendly = 1              positi : negati =     13.8 : 1.0
                UNI_cozy = 1              positi : negati =     13.0 : 1.0
             UNI_awesome = 1              positi : negati =     13.0 : 1.0
      BIGRAM_pretty_good = 1              negati : positi =     12.2 : 1.0
             UNI_problem = 1              negati : positi =     11.7 : 1.0
              UNI_superb = 1              positi : negati =     11.4 : 1.0
